5.000000000000000000e+02 -1.428488099231208253e+03 3.300000000000000000e+01
1.000000000000000000e+03 -2.791871670616964366e+03 2.600000000000000000e+01
1.500000000000000000e+03 -4.572065372122371627e+03 5.100000000000000000e+01
2.000000000000000000e+03 -6.143532414397815046e+03 2.900000000000000000e+01
2.500000000000000000e+03 -7.725297788790409868e+03 1.500000000000000000e+01
3.000000000000000000e+03 -9.207154423514875816e+03 1.500000000000000000e+01
3.500000000000000000e+03 -1.065258159042364605e+04 2.000000000000000000e+01
4.000000000000000000e+03 -1.212522804779326361e+04 2.200000000000000000e+01
4.500000000000000000e+03 -1.361895388503595859e+04 8.000000000000000000e+00
5.000000000000000000e+03 -1.506649570650321220e+04 1.400000000000000000e+01
5.500000000000000000e+03 -1.647845045439586102e+04 1.200000000000000000e+01
6.000000000000000000e+03 -1.791935465190996183e+04 1.200000000000000000e+01
6.500000000000000000e+03 -1.936969486449197211e+04 1.100000000000000000e+01
7.000000000000000000e+03 -2.081469464419648648e+04 1.300000000000000000e+01
7.500000000000000000e+03 -2.224743801784355674e+04 1.800000000000000000e+01
8.000000000000000000e+03 -2.367591722743535865e+04 1.600000000000000000e+01
8.500000000000000000e+03 -2.508697609337334143e+04 1.200000000000000000e+01
9.000000000000000000e+03 -2.654077817648902783e+04 1.100000000000000000e+01
9.500000000000000000e+03 -2.794545744599213140e+04 8.000000000000000000e+00
1.000000000000000000e+04 -2.935841903303984873e+04 1.100000000000000000e+01
1.050000000000000000e+04 -3.156622781827867220e+04 1.010000000000000000e+02
1.100000000000000000e+04 -3.356106010232631525e+04 6.100000000000000000e+01
1.150000000000000000e+04 -3.545537946456184000e+04 3.500000000000000000e+01
1.200000000000000000e+04 -3.739945782132823661e+04 3.100000000000000000e+01
1.250000000000000000e+04 -3.921545552255328221e+04 1.800000000000000000e+01
1.300000000000000000e+04 -4.105124417344696849e+04 2.100000000000000000e+01
1.350000000000000000e+04 -4.284326917158107244e+04 2.300000000000000000e+01
1.400000000000000000e+04 -4.464879684488280327e+04 3.100000000000000000e+01
1.450000000000000000e+04 -4.645616640623279091e+04 2.300000000000000000e+01
1.500000000000000000e+04 -4.826690269532342063e+04 3.600000000000000000e+01
1.550000000000000000e+04 -5.006634891558763775e+04 3.500000000000000000e+01
1.600000000000000000e+04 -5.182134316014706565e+04 4.200000000000000000e+01
1.650000000000000000e+04 -5.366313075736784958e+04 3.400000000000000000e+01
1.700000000000000000e+04 -5.541676105839741649e+04 2.700000000000000000e+01
1.750000000000000000e+04 -5.714704725774925464e+04 2.300000000000000000e+01
1.800000000000000000e+04 -5.886580479500508955e+04 2.700000000000000000e+01
1.850000000000000000e+04 -6.056725339944740699e+04 2.400000000000000000e+01
1.900000000000000000e+04 -6.229996814828139759e+04 2.400000000000000000e+01
1.950000000000000000e+04 -6.402470684702418657e+04 1.900000000000000000e+01
2.000000000000000000e+04 -6.568392680177801230e+04 2.300000000000000000e+01
2.050000000000000000e+04 -6.739280010142477113e+04 2.200000000000000000e+01
2.100000000000000000e+04 -6.911959505131350306e+04 2.000000000000000000e+01
2.150000000000000000e+04 -7.084808369949753978e+04 1.500000000000000000e+01
2.200000000000000000e+04 -7.259053506868449040e+04 2.000000000000000000e+01
2.250000000000000000e+04 -7.426498350776128063e+04 2.300000000000000000e+01
2.300000000000000000e+04 -7.597063864632499462e+04 1.900000000000000000e+01
2.350000000000000000e+04 -7.764539852776708722e+04 2.400000000000000000e+01
2.400000000000000000e+04 -7.933946509581813007e+04 2.100000000000000000e+01
2.450000000000000000e+04 -8.104214972172502894e+04 2.300000000000000000e+01
2.500000000000000000e+04 -8.270848325018947071e+04 1.400000000000000000e+01
2.550000000000000000e+04 -8.441321235262563278e+04 2.300000000000000000e+01
2.600000000000000000e+04 -8.611997279585730575e+04 1.700000000000000000e+01
2.650000000000000000e+04 -8.783920517223309434e+04 2.000000000000000000e+01
2.700000000000000000e+04 -8.956014774037619645e+04 2.100000000000000000e+01
2.750000000000000000e+04 -9.125368536389651126e+04 2.000000000000000000e+01
2.800000000000000000e+04 -9.297614446419301385e+04 1.900000000000000000e+01
2.850000000000000000e+04 -9.468742289573489688e+04 2.100000000000000000e+01
2.900000000000000000e+04 -9.639975402421913168e+04 2.300000000000000000e+01
2.950000000000000000e+04 -9.811604063209661399e+04 1.600000000000000000e+01
3.000000000000000000e+04 -9.981771802851808025e+04 2.200000000000000000e+01
3.050000000000000000e+04 -1.015446354117450246e+05 1.700000000000000000e+01
3.100000000000000000e+04 -1.032416607847958949e+05 1.300000000000000000e+01
3.150000000000000000e+04 -1.049092699094648124e+05 1.400000000000000000e+01
3.200000000000000000e+04 -1.066019863610971661e+05 1.900000000000000000e+01
3.250000000000000000e+04 -1.083411165956314217e+05 1.400000000000000000e+01
3.300000000000000000e+04 -1.100195258578866196e+05 1.900000000000000000e+01
3.350000000000000000e+04 -1.116985000161293865e+05 1.600000000000000000e+01
3.400000000000000000e+04 -1.134176828787740815e+05 1.900000000000000000e+01
3.450000000000000000e+04 -1.151469947864528513e+05 1.800000000000000000e+01
3.500000000000000000e+04 -1.168830396786891652e+05 2.200000000000000000e+01
3.550000000000000000e+04 -1.186226978831794258e+05 1.400000000000000000e+01
3.600000000000000000e+04 -1.203296756859169691e+05 1.500000000000000000e+01
3.650000000000000000e+04 -1.220230908160134131e+05 1.500000000000000000e+01
3.700000000000000000e+04 -1.237452650045471091e+05 1.000000000000000000e+01
3.750000000000000000e+04 -1.254400391770960705e+05 1.400000000000000000e+01
3.800000000000000000e+04 -1.271673986390120845e+05 1.200000000000000000e+01
3.850000000000000000e+04 -1.288862177803920204e+05 1.800000000000000000e+01
3.900000000000000000e+04 -1.305801386471544538e+05 1.100000000000000000e+01
3.950000000000000000e+04 -1.322865146330655261e+05 1.500000000000000000e+01
4.000000000000000000e+04 -1.339751744585077104e+05 2.100000000000000000e+01
4.050000000000000000e+04 -1.357054439917279815e+05 1.500000000000000000e+01
4.100000000000000000e+04 -1.373923205868482473e+05 1.200000000000000000e+01
4.150000000000000000e+04 -1.390783738085106888e+05 1.200000000000000000e+01
4.200000000000000000e+04 -1.407600857015246002e+05 1.200000000000000000e+01
4.250000000000000000e+04 -1.424833673926754564e+05 1.200000000000000000e+01
4.300000000000000000e+04 -1.441712428265076887e+05 1.200000000000000000e+01
4.350000000000000000e+04 -1.458584520838808967e+05 1.400000000000000000e+01
4.400000000000000000e+04 -1.475785145657396642e+05 1.100000000000000000e+01
4.450000000000000000e+04 -1.492671022748016112e+05 1.300000000000000000e+01
4.500000000000000000e+04 -1.510016112242730742e+05 1.400000000000000000e+01
4.550000000000000000e+04 -1.526892141080322617e+05 1.400000000000000000e+01
4.600000000000000000e+04 -1.543674473162054201e+05 1.400000000000000000e+01
4.650000000000000000e+04 -1.560743164813368930e+05 1.600000000000000000e+01
4.700000000000000000e+04 -1.578106803632398660e+05 1.300000000000000000e+01
4.750000000000000000e+04 -1.594998644966593420e+05 1.600000000000000000e+01
4.800000000000000000e+04 -1.612314850620965881e+05 1.200000000000000000e+01
4.850000000000000000e+04 -1.628941432477383642e+05 1.300000000000000000e+01
4.900000000000000000e+04 -1.645913815397806466e+05 1.100000000000000000e+01
4.950000000000000000e+04 -1.662744263050857699e+05 1.500000000000000000e+01
5.000000000000000000e+04 -1.679599366671251191e+05 1.400000000000000000e+01
5.050000000000000000e+04 -1.696387749514749157e+05 1.600000000000000000e+01
5.100000000000000000e+04 -1.713689596462505287e+05 1.300000000000000000e+01
5.150000000000000000e+04 -1.730407297049359477e+05 1.400000000000000000e+01
5.200000000000000000e+04 -1.747388644172847853e+05 1.900000000000000000e+01
5.250000000000000000e+04 -1.764461311532265390e+05 8.000000000000000000e+00
5.300000000000000000e+04 -1.781674819513330585e+05 1.200000000000000000e+01
5.350000000000000000e+04 -1.798115517649323447e+05 1.500000000000000000e+01
5.400000000000000000e+04 -1.814838447299950058e+05 1.100000000000000000e+01
5.450000000000000000e+04 -1.831535072950719332e+05 1.700000000000000000e+01
5.500000000000000000e+04 -1.848229428525630792e+05 1.700000000000000000e+01
5.550000000000000000e+04 -1.864944799603203719e+05 1.600000000000000000e+01
5.600000000000000000e+04 -1.881721441756855056e+05 1.600000000000000000e+01
5.650000000000000000e+04 -1.898942229405901162e+05 1.200000000000000000e+01
5.700000000000000000e+04 -1.916312155076118943e+05 1.200000000000000000e+01
5.750000000000000000e+04 -1.932966062645384518e+05 1.500000000000000000e+01
5.800000000000000000e+04 -1.949936404411565454e+05 1.400000000000000000e+01
5.850000000000000000e+04 -1.966729856680671510e+05 1.300000000000000000e+01
5.900000000000000000e+04 -1.983546754197942209e+05 1.600000000000000000e+01
5.950000000000000000e+04 -2.000133764639659203e+05 1.300000000000000000e+01
6.000000000000000000e+04 -2.017088776019250799e+05 1.400000000000000000e+01
6.050000000000000000e+04 -2.034239775257912115e+05 1.600000000000000000e+01
6.100000000000000000e+04 -2.051245833323289407e+05 1.100000000000000000e+01
6.150000000000000000e+04 -2.068223045708457939e+05 1.400000000000000000e+01
6.200000000000000000e+04 -2.085307853989598807e+05 1.400000000000000000e+01
6.250000000000000000e+04 -2.102476490508698334e+05 1.400000000000000000e+01
6.300000000000000000e+04 -2.119715670073188958e+05 1.200000000000000000e+01
6.350000000000000000e+04 -2.136897545366458653e+05 1.600000000000000000e+01
6.400000000000000000e+04 -2.154059268142864457e+05 1.800000000000000000e+01
6.450000000000000000e+04 -2.170640639943054703e+05 1.400000000000000000e+01
6.500000000000000000e+04 -2.187705045790013683e+05 1.500000000000000000e+01
6.550000000000000000e+04 -2.204643303946747037e+05 1.300000000000000000e+01
6.600000000000000000e+04 -2.221861446996775921e+05 1.400000000000000000e+01
6.650000000000000000e+04 -2.238627148083618085e+05 1.400000000000000000e+01
6.700000000000000000e+04 -2.255600332051385776e+05 1.300000000000000000e+01
6.750000000000000000e+04 -2.272544760173090326e+05 1.600000000000000000e+01
6.800000000000000000e+04 -2.289545524912499532e+05 1.400000000000000000e+01
6.850000000000000000e+04 -2.306526330296577071e+05 1.200000000000000000e+01
6.900000000000000000e+04 -2.323059796233393427e+05 1.400000000000000000e+01
6.950000000000000000e+04 -2.339958289031690510e+05 1.100000000000000000e+01
7.000000000000000000e+04 -2.356814924777532869e+05 1.500000000000000000e+01
7.050000000000000000e+04 -2.373841625345951470e+05 1.200000000000000000e+01
7.100000000000000000e+04 -2.390783728317933856e+05 1.500000000000000000e+01
7.150000000000000000e+04 -2.407865004154719063e+05 1.600000000000000000e+01
7.200000000000000000e+04 -2.424821550467629859e+05 1.700000000000000000e+01
7.250000000000000000e+04 -2.441736324198484654e+05 1.300000000000000000e+01
7.300000000000000000e+04 -2.459018369765685347e+05 1.200000000000000000e+01
7.350000000000000000e+04 -2.476119735975354561e+05 1.300000000000000000e+01
7.400000000000000000e+04 -2.493089449260297115e+05 1.300000000000000000e+01
7.450000000000000000e+04 -2.510424547344487801e+05 1.400000000000000000e+01
7.500000000000000000e+04 -2.527206842591206077e+05 1.300000000000000000e+01
7.550000000000000000e+04 -2.544531506664873159e+05 7.000000000000000000e+00
7.600000000000000000e+04 -2.561717493806730781e+05 5.000000000000000000e+00
7.650000000000000000e+04 -2.578844754601934401e+05 5.000000000000000000e+00
7.700000000000000000e+04 -2.595748043093531160e+05 7.000000000000000000e+00
7.750000000000000000e+04 -2.613247355205146014e+05 5.000000000000000000e+00
7.800000000000000000e+04 -2.630185696180319646e+05 5.000000000000000000e+00
7.850000000000000000e+04 -2.647008282016807352e+05 7.000000000000000000e+00
7.900000000000000000e+04 -2.663900242227299022e+05 6.000000000000000000e+00
7.950000000000000000e+04 -2.680908966360927443e+05 5.000000000000000000e+00
8.000000000000000000e+04 -2.698137437619550037e+05 5.000000000000000000e+00
8.050000000000000000e+04 -2.715298845143517246e+05 6.000000000000000000e+00
8.100000000000000000e+04 -2.732092216536141932e+05 6.000000000000000000e+00
8.150000000000000000e+04 -2.749289289839515695e+05 7.000000000000000000e+00
8.200000000000000000e+04 -2.766088907589599839e+05 5.000000000000000000e+00
8.250000000000000000e+04 -2.782974644534744439e+05 5.000000000000000000e+00
8.300000000000000000e+04 -2.799924047833328950e+05 4.000000000000000000e+00
8.350000000000000000e+04 -2.817075986330413725e+05 7.000000000000000000e+00
8.400000000000000000e+04 -2.833720283114902559e+05 5.000000000000000000e+00
8.450000000000000000e+04 -2.850155728909745230e+05 6.000000000000000000e+00
8.500000000000000000e+04 -2.866956736899145762e+05 4.000000000000000000e+00
8.550000000000000000e+04 -2.883530733747389750e+05 5.000000000000000000e+00
8.600000000000000000e+04 -2.900284078359605046e+05 6.000000000000000000e+00
8.650000000000000000e+04 -2.916929547466185759e+05 5.000000000000000000e+00
8.700000000000000000e+04 -2.933746679909552913e+05 7.000000000000000000e+00
8.750000000000000000e+04 -2.950130188307004282e+05 5.000000000000000000e+00
8.800000000000000000e+04 -2.966814193708225503e+05 6.000000000000000000e+00
8.850000000000000000e+04 -2.983778432947949623e+05 5.000000000000000000e+00
8.900000000000000000e+04 -3.000410277704556356e+05 4.000000000000000000e+00
8.950000000000000000e+04 -3.017280197020103806e+05 6.000000000000000000e+00
9.000000000000000000e+04 -3.034248482104882132e+05 4.000000000000000000e+00
9.050000000000000000e+04 -3.050952946096065571e+05 6.000000000000000000e+00
9.100000000000000000e+04 -3.067529777758257696e+05 6.000000000000000000e+00
9.150000000000000000e+04 -3.084021917643582565e+05 4.000000000000000000e+00
9.200000000000000000e+04 -3.100996373969457927e+05 4.000000000000000000e+00
9.250000000000000000e+04 -3.118195957467888365e+05 4.000000000000000000e+00
9.300000000000000000e+04 -3.134888415591515950e+05 4.000000000000000000e+00
9.350000000000000000e+04 -3.151748123605390429e+05 6.000000000000000000e+00
9.400000000000000000e+04 -3.168460816648218897e+05 6.000000000000000000e+00
9.450000000000000000e+04 -3.185079063080273918e+05 6.000000000000000000e+00
9.500000000000000000e+04 -3.201703336102195899e+05 5.000000000000000000e+00
9.550000000000000000e+04 -3.218661132196736289e+05 4.000000000000000000e+00
9.600000000000000000e+04 -3.235547000443176366e+05 6.000000000000000000e+00
9.650000000000000000e+04 -3.252705270422179601e+05 5.000000000000000000e+00
9.700000000000000000e+04 -3.269324590683022980e+05 5.000000000000000000e+00
9.750000000000000000e+04 -3.286673566233310848e+05 7.000000000000000000e+00
9.800000000000000000e+04 -3.303859702186933719e+05 5.000000000000000000e+00
9.850000000000000000e+04 -3.320817019831328653e+05 4.000000000000000000e+00
9.900000000000000000e+04 -3.337502178953911061e+05 5.000000000000000000e+00
9.950000000000000000e+04 -3.354155589994365000e+05 6.000000000000000000e+00
1.000000000000000000e+05 -3.370911453050007694e+05 4.000000000000000000e+00
