1.000000000000000000e+02 1.344728708267211914e+00 -1.612937655129159111e+02 5.000000000000000000e+01
1.180000000000000000e+02 1.210376501083374023e+00 -1.925926394142830986e+02 4.900000000000000000e+01
1.410000000000000000e+02 1.372533559799194336e+00 -2.277418551125252861e+02 5.300000000000000000e+01
1.680000000000000000e+02 1.386413097381591797e+00 -2.806011385597909111e+02 5.100000000000000000e+01
1.990000000000000000e+02 1.382220745086669922e+00 -3.273551363625252861e+02 5.200000000000000000e+01
2.370000000000000000e+02 1.502914428710937500e+00 -3.843070406594002861e+02 5.500000000000000000e+01
2.820000000000000000e+02 1.486926078796386719e+00 -4.676413607277596611e+02 5.400000000000000000e+01
3.360000000000000000e+02 1.519217252731323242e+00 -5.330830416359627861e+02 5.600000000000000000e+01
3.990000000000000000e+02 1.626547336578369141e+00 -6.154898409523690361e+02 6.100000000000000000e+01
4.750000000000000000e+02 1.581772804260253906e+00 -7.403415865578377861e+02 5.900000000000000000e+01
5.650000000000000000e+02 1.724816560745239258e+00 -8.580304903664315361e+02 6.200000000000000000e+01
6.720000000000000000e+02 1.760494947433471680e+00 -1.029663547007056650e+03 6.200000000000000000e+01
7.990000000000000000e+02 1.960395574569702148e+00 -1.198071505991431650e+03 6.600000000000000000e+01
9.510000000000000000e+02 2.057177782058715820e+00 -1.428448581186744150e+03 6.800000000000000000e+01
1.131000000000000000e+03 2.179440975189208984e+00 -1.675123385874244150e+03 6.900000000000000000e+01
1.345000000000000000e+03 2.249521970748901367e+00 -1.974844088999244150e+03 7.000000000000000000e+01
1.599000000000000000e+03 2.282444238662719727e+00 -2.355859713999243922e+03 6.700000000000000000e+01
1.902000000000000000e+03 2.933926582336425781e+00 -2.770135592905493922e+03 8.000000000000000000e+01
2.262000000000000000e+03 3.243237257003784180e+00 -3.283381198374243922e+03 8.300000000000000000e+01
2.690000000000000000e+03 3.282080650329589844e+00 -3.907853854624243922e+03 7.900000000000000000e+01
3.199000000000000000e+03 3.658290624618530273e+00 -4.661229342905494377e+03 8.100000000000000000e+01
3.805000000000000000e+03 5.307335853576660156e+00 -5.548870944467994377e+03 8.400000000000000000e+01
4.525000000000000000e+03 6.453558444976806641e+00 -6.576635104624244377e+03 9.200000000000000000e+01
5.381000000000000000e+03 6.768767833709716797e+00 -7.775870944467994377e+03 8.500000000000000000e+01
6.399000000000000000e+03 8.644450664520263672e+00 -9.141035006967993468e+03 1.010000000000000000e+02
7.610000000000000000e+03 1.160449099540710449e+01 -1.084863071009299347e+04 1.150000000000000000e+02
9.050000000000000000e+03 1.128941202163696289e+01 -1.286569125696799347e+04 1.010000000000000000e+02
1.076300000000000000e+04 1.579812526702880859e+01 -1.531923227259299347e+04 1.070000000000000000e+02
1.279900000000000000e+04 1.576883172988891602e+01 -1.826012680384299529e+04 1.060000000000000000e+02
1.522100000000000000e+04 2.895722174644470215e+01 -2.158604281946799529e+04 1.480000000000000000e+02
1.810100000000000000e+04 3.127292895317077637e+01 -2.569458969446799529e+04 1.400000000000000000e+02
2.152600000000000000e+04 4.166609835624694824e+01 -3.059539242884299529e+04 1.350000000000000000e+02
2.559900000000000000e+04 4.115034532546997070e+01 -3.631741977259299165e+04 1.480000000000000000e+02
3.044300000000000000e+04 5.853392767906188965e+01 -4.331206821009299165e+04 1.590000000000000000e+02
3.620300000000000000e+04 8.402909827232360840e+01 -5.170181039759299165e+04 1.530000000000000000e+02
4.305300000000000000e+04 8.640438461303710938e+01 -6.147645883509299165e+04 1.590000000000000000e+02
5.119900000000000000e+04 9.232993698120117188e+01 -7.310127133509299892e+04 1.570000000000000000e+02
6.088700000000000000e+04 1.113023507595062256e+02 -8.675561508509299892e+04 1.670000000000000000e+02
7.240700000000000000e+04 1.395628805160522461e+02 -1.033034041475929989e+05 1.700000000000000000e+02
8.610700000000000000e+04 1.861513926982879639e+02 -1.231831463350929989e+05 1.530000000000000000e+02
1.023990000000000000e+05 1.834981701374053955e+02 -1.459049900850929844e+05 1.660000000000000000e+02
1.217740000000000000e+05 3.158552327156066895e+02 -1.734403963350929844e+05 1.790000000000000000e+02
1.448150000000000000e+05 2.653899126052856445e+02 -2.066803650850929844e+05 1.670000000000000000e+02
1.722150000000000000e+05 3.626044251918792725e+02 -2.455863807100929844e+05 1.850000000000000000e+02
2.047990000000000000e+05 4.001454732418060303e+02 -2.920229275850930135e+05 1.870000000000000000e+02
2.435490000000000000e+05 5.054034516811370850e+02 -3.480347713350930135e+05 1.830000000000000000e+02
2.896300000000000000e+05 6.267975912094116211e+02 -4.135931463350930135e+05 1.900000000000000000e+02
3.444310000000000000e+05 7.035440635681152344e+02 -4.906083025850930135e+05 1.910000000000000000e+02
4.095990000000000000e+05 8.615841956138610840e+02 -5.834518650850929553e+05 1.940000000000000000e+02
4.870990000000000000e+05 1.172136045932769775e+03 -6.937894275850929553e+05 2.010000000000000000e+02
5.792610000000000000e+05 1.306797010898590088e+03 -8.235052400850929553e+05 2.050000000000000000e+02
6.888620000000000000e+05 1.614137519598007202e+03 -9.795482400850929553e+05 2.050000000000000000e+02
8.191990000000000000e+05 1.569331929683685303e+03 -1.170098427585093072e+06 1.940000000000000000e+02
9.741980000000000000e+05 2.516616579294204712e+03 -1.384275677585093072e+06 2.160000000000000000e+02
1.000000000000000000e+06 2.765976145505905151e+03 -1.421588052585093072e+06 2.110000000000000000e+02
